Using rerddap to Access Data from ERDDAP Servers
…
whichSST <- ed_search(query = "SST MODIS")

still returns 172 responses. If the simple search doesn’t narrow
things enough, look at the advanced search function
ed_search_adv().

Finding the Data You Want

The first way to find a dataset is to browse the builtin web page for
a particular ERDDAP server. A list of
some of the public available ERDDAP
servers can be obtained from the rerddap command:

servers()
#> # A tibble: 59 × 4
#>    name                                                     short…¹ url   public
#>    <chr>                                                    <chr>   <chr> <lgl> 
#>  1 CoastWatch West Coast Node                               CSWC    http… TRUE  
#>  2 ERDDAP at the Asia-Pacific Data-Research Center          APDRC   http… TRUE  
#>  3 NOAA's National Centers for Environmental Information (… NCEI    http… TRUE  
#>  4 Biological and Chemical Oceanography Data Management Of… BCODMO  http… TRUE  
#>  5 European Marine Observation and Data Network (EMODnet) … EMODnet http… TRUE  
#>  6 Marine Institute - Ireland                               MII     http… TRUE  
#>  7 CoastWatch Caribbean/Gulf of Mexico Node                 CSCGOM  http… TRUE  
#>  8 NOAA IOOS Sensors ERDDAP                                 IOOS-S… http… TRUE  
#>  9 NOAA IOOS CeNCOOS (Central and Northern California Ocea… CeNCOOS http… TRUE  
#> 10 CeNCOOS (Central and Northern California Ocean Observin… CeNCOO… http… TRUE  
#> # … with 49 more rows, and abbreviated variable name ¹​short_name
…
